stm32l4xx_hal_msp.c:66:6:HAL_MspInit	16	static
stm32l4xx_hal_msp.c:88:6:HAL_CRC_MspInit	24	static
stm32l4xx_hal_msp.c:110:6:HAL_CRC_MspDeInit	16	static
stm32l4xx_hal_msp.c:132:6:HAL_I2C_MspInit	48	static
stm32l4xx_hal_msp.c:168:6:HAL_I2C_MspDeInit	16	static
stm32l4xx_hal_msp.c:197:6:HAL_OSPI_MspInit	56	static
stm32l4xx_hal_msp.c:253:6:HAL_OSPI_MspDeInit	16	static
stm32l4xx_hal_msp.c:289:6:HAL_SPI_MspInit	64	static
stm32l4xx_hal_msp.c:374:6:HAL_SPI_MspDeInit	16	static
stm32l4xx_hal_msp.c:427:6:HAL_TIM_PWM_MspInit	24	static
stm32l4xx_hal_msp.c:443:6:HAL_TIM_MspPostInit	40	static
stm32l4xx_hal_msp.c:477:6:HAL_TIM_PWM_MspDeInit	16	static
stm32l4xx_hal_msp.c:499:6:HAL_UART_MspInit	56	static
stm32l4xx_hal_msp.c:562:6:HAL_UART_MspDeInit	16	static
