u8x8_byte.c:39:9:u8x8_byte_SetDC	24	static
u8x8_byte.c:44:9:u8x8_byte_SendBytes	32	static
u8x8_byte.c:49:9:u8x8_byte_SendByte	16	static
u8x8_byte.c:54:9:u8x8_byte_StartTransfer	24	static
u8x8_byte.c:59:9:u8x8_byte_EndTransfer	24	static
u8x8_byte.c:66:9:u8x8_byte_empty	24	static
u8x8_byte.c:107:9:u8x8_byte_4wire_sw_spi	48	static
u8x8_byte.c:218:9:u8x8_byte_8bit_8080mode	40	static
u8x8_byte.c:270:9:u8x8_byte_3wire_sw_spi	48	static
u8x8_byte.c:333:6:u8x8_byte_set_ks0108_cs	16	static
u8x8_byte.c:343:9:u8x8_byte_ks0108	40	static
u8x8_byte.c:399:9:u8x8_byte_sed1520	32	static
u8x8_byte.c:463:13:i2c_delay	16	static
u8x8_byte.c:469:13:i2c_init	16	static
u8x8_byte.c:479:13:i2c_read_scl_and_delay	16	static
u8x8_byte.c:487:13:i2c_clear_scl	16	static
u8x8_byte.c:492:13:i2c_read_sda	16	static
u8x8_byte.c:498:13:i2c_clear_sda	16	static
u8x8_byte.c:504:13:i2c_start	16	static
u8x8_byte.c:522:13:i2c_stop	16	static
u8x8_byte.c:537:13:i2c_write_bit	16	static
u8x8_byte.c:549:13:i2c_read_bit	16	static
u8x8_byte.c:562:13:i2c_write_byte	16	static
u8x8_byte.c:579:9:u8x8_byte_sw_i2c	32	static
